Revision/DoubleDabble/workingRegister_tb.vcd
$date
	Sun Apr 18 01:07:43 2021
$end
$version
	Icarus Verilog
$end
$timescale
	1ns
$end
$scope module workingRegister_tb $end
$var wire 4 ! parallel_out [3:0] $end
$var wire 1 " carry $end
$var reg 1 # clear_bar $end
$var reg 1 $ clk $end
$var reg 1 % preset_bar $end
$var reg 1 & serial_in $end
$scope module WR $end
$var wire 1 # clear_bar $end
$var wire 1 $ clk $end
$var wire 1 % preset_bar $end
$var wire 1 & serial_in $end
$var wire 4 ' parallel_out [3:0] $end
$var wire 4 ( ns [3:0] $end
$var wire 1 " carry $end
$scope module dff0 $end
$var wire 1 $ CLK $end
$var wire 1 ) CLKn $end
$var wire 1 # Clear_Bar $end
$var wire 1 & D $end
$var wire 1 * Dn $end
$var wire 1 % Preset_Bar $end
$var wire 1 + Q $end
$var wire 1 , Qn $end
$var wire 1 - s1 $end
$var wire 1 . s2 $end
$var wire 1 / s3 $end
$var wire 1 0 s4 $end
$var wire 1 1 s5 $end
$var wire 1 2 s6 $end
$upscope $end
$scope module dff1 $end
$var wire 1 $ CLK $end
$var wire 1 3 CLKn $end
$var wire 1 # Clear_Bar $end
$var wire 1 4 D $end
$var wire 1 5 Dn $end
$var wire 1 % Preset_Bar $end
$var wire 1 6 Q $end
$var wire 1 7 Qn $end
$var wire 1 8 s1 $end
$var wire 1 9 s2 $end
$var wire 1 : s3 $end
$var wire 1 ; s4 $end
$var wire 1 < s5 $end
$var wire 1 = s6 $end
$upscope $end
$scope module dff2 $end
$var wire 1 $ CLK $end
$var wire 1 > CLKn $end
$var wire 1 # Clear_Bar $end
$var wire 1 ? D $end
$var wire 1 @ Dn $end
$var wire 1 % Preset_Bar $end
$var wire 1 A Q $end
$var wire 1 B Qn $end
$var wire 1 C s1 $end
$var wire 1 D s2 $end
$var wire 1 E s3 $end
$var wire 1 F s4 $end
$var wire 1 G s5 $end
$var wire 1 H s6 $end
$upscope $end
$scope module dff3 $end
$var wire 1 $ CLK $end
$var wire 1 I CLKn $end
$var wire 1 # Clear_Bar $end
$var wire 1 J D $end
$var wire 1 K Dn $end
$var wire 1 % Preset_Bar $end
$var wire 1 L Q $end
$var wire 1 M Qn $end
$var wire 1 N s1 $end
$var wire 1 O s2 $end
$var wire 1 P s3 $end
$var wire 1 Q s4 $end
$var wire 1 R s5 $end
$var wire 1 S s6 $end
$upscope $end
$scope module nb $end
$var wire 4 T in [3:0] $end
$var wire 1 U w1 $end
$var wire 1 V w2 $end
$var wire 1 W w3 $end
$var wire 4 X temp [3:0] $end
$var wire 4 Y out [3:0] $end
$var wire 1 Z cout1 $end
$scope module ra $end
$var wire 4 [ A [3:0] $end
$var wire 4 \ B [3:0] $end
$var wire 1 ] cin1 $end
$var wire 1 Z cout1 $end
$var wire 1 ^ c3 $end
$var wire 1 _ c2 $end
$var wire 1 ` c1 $end
$var wire 4 a S [3:0] $end
$scope module fa0 $end
$var wire 1 b a $end
$var wire 1 c b $end
$var wire 1 ] cin $end
$var wire 1 ` cout $end
$var wire 1 d sum $end
$var wire 1 e w1 $end
$var wire 1 f w2 $end
$var wire 1 g w3 $end
$var wire 1 h w4 $end
$upscope $end
$scope module fa1 $end
$var wire 1 i a $end
$var wire 1 j b $end
$var wire 1 ` cin $end
$var wire 1 _ cout $end
$var wire 1 k sum $end
$var wire 1 l w1 $end
$var wire 1 m w2 $end
$var wire 1 n w3 $end
$var wire 1 o w4 $end
$upscope $end
$scope module fa2 $end
$var wire 1 p a $end
$var wire 1 q b $end
$var wire 1 _ cin $end
$var wire 1 ^ cout $end
$var wire 1 r sum $end
$var wire 1 s w1 $end
$var wire 1 t w2 $end
$var wire 1 u w3 $end
$var wire 1 v w4 $end
$upscope $end
$scope module fa3 $end
$var wire 1 w a $end
$var wire 1 x b $end
$var wire 1 ^ cin $end
$var wire 1 Z cout $end
$var wire 1 y sum $end
$var wire 1 z w1 $end
$var wire 1 { w2 $end
$var wire 1 | w3 $end
$var wire 1 } w4 $end
$upscope $end
$upscope $end
$upscope $end
$upscope $end
$upscope $end
$enddefinitions $end
#0
$dumpvars
0}
0|
0{
0z
0y
0x
0w
0v
0u
0t
0s
0r
0q
0p
0o
0n
0m
0l
0k
0j
0i
0h
0g
0f
0e
0d
0c
0b
b0 a
0`
0_
0^
0]
b0 \
b0 [
0Z
b0 Y
b0 X
0W
0V
0U
b0 T
0S
1R
1Q
0P
1O
1N
1M
0L
1K
0J
1I
0H
1G
1F
0E
1D
1C
1B
0A
1@
0?
1>
0=
1<
1;
0:
19
18
17
06
15
04
13
02
11
10
0/
1.
1-
1,
0+
1*
1)
b0 (
b0 '
0&
1%
0$
0#
0"
b0 !
$end
#5
12
1=
1H
1S
0)
0.
03
09
0>
0D
0I
0O
1$
#10
02
0=
0H
0S
1)
1.
13
19
1>
1D
1I
1O
0$
#15
12
1=
1H
1S
0)
0.
03
09
0>
0D
0I
0O
1$
#20
02
0=
0H
0S
1)
1.
13
19
1>
1D
1I
1O
0*
0$
1#
1&
#25
00
12
1/
1=
1H
1S
0)
0-
03
09
0>
0D
0I
0O
1$
#30
05
14
b1 (
b1 Y
b1 a
1d
1U
1e
0,
1b
b1 !
b1 '
b1 T
b1 [
1+
01
0=
0H
0S
1)
1-
13
19
1>
1D
1I
1O
0$
#35
0;
11
1=
1:
1H
1S
0)
0-
03
08
0>
0D
0I
0O
1$
#40
0@
1?
b11 (
b11 Y
b11 a
1k
1l
07
1i
b11 !
b11 '
b11 T
b11 [
16
01
0<
0H
0S
1)
13
18
1>
1D
1I
1O
1*
1-
0$
0&
#45
0/
0F
11
10
1<
1H
1E
1S
0)
0.
03
08
0>
0C
0I
0O
1$
#50
1"
1y
1@
1^
0?
1u
05
0k
1_
14
0l
1m
1K
1d
1c
1j
0J
1e
b11 X
b11 \
1W
b1001 (
b1001 Y
b1001 a
0r
0b
1V
1s
0+
0B
1p
1,
b110 !
b110 '
b110 T
b110 [
1A
02
0<
0G
0S
1)
1.
13
18
1>
1C
1I
1O
0*
0$
1&
#55
00
0E
12
1/
1<
1G
1F
1S
0)
0-
03
08
0>
0D
0I
0O
1$
#60
0_
0@
1l
0m
1K
0"
05
1?
0c
0j
0J
0y
14
1k
0n
0o
b0 X
b0 \
0W
0r
0^
b11 (
b11 Y
b11 a
1d
0`
0V
0s
0u
1e
0f
0p
0,
1b
0A
b11 !
b11 '
b11 T
b11 [
1+
1B
01
0<
0H
0S
1)
1-
13
18
1>
1D
1I
1O
0$
#65
0F
11
1<
1H
1E
1S
0)
0-
03
08
0>
0C
0I
0O
1$
#70
1"
1y
15
0@
1^
04
1n
1o
1?
1u
0d
1`
1k
1_
0e
1f
0l
1m
1K
1c
1j
0J
b11 X
b11 \
1W
b1010 (
b1010 Y
b1010 a
0r
1V
1s
0B
1p
b111 !
b111 '
b111 T
b111 [
1A
01
0<
0G
0S
1)
1-
13
18
1>
1C
1I
1O
0$
#75
0:
11
1<
1;
1G
1S
0)
0-
03
09
0>
0C
0I
0O
1$
#80
1@
0?
b1000 (
b1000 Y
b1000 a
0k
1l
0m
0n
0i
b101 !
b101 '
b101 T
b101 [
06
17
01
0=
0G
0S
1)
1-
13
19
1>
1C
1I
1O
0$
#85
0E
11
1=
1G
1F
1S
0)
0-
03
09
0>
0D
0I
0O
1$
#90
05
1@
14
0?
1d
0`
0k
0_
1e
0f
0l
0o
1K
0"
0c
0j
0J
0y
b0 X
b0 \
0W
b1 (
b1 Y
b1 a
0r
0^
0V
0s
0u
0p
b1 !
b1 '
b1 T
b1 [
0A
1B
01
0=
0H
0S
1)
1-
13
19
1>
1D
1I
1O
0$
#95
0;
11
1=
1:
1H
1S
0)
0-
03
08
0>
0D
0I
0O
1$
#100
0@
1?
b11 (
b11 Y
b11 a
1k
1l
07
1i
b11 !
b11 '
b11 T
b11 [
16
01
0<
0H
0S
1)
1-
13
18
1>
1D
1I
1O
0$
